{
  "appId": "com.minsait.mymed.app.bidafarma",
  "appName": "Prevención es bida",
  "bundledWebRuntime": false,
  "npmClient": "npm",
  "webDir": "www",
  "plugins": {
    "SplashScreen": {
      "launchShowDuration": 0
    },
    "PushNotifications": {
      "presentationOptions": [
        "badge",
        "sound",
        "alert"
      ]
    }
  },
  "cordova": {
    "preferences": {
      "ScrollEnabled": "false",
      "android-minSdkVersion": "19",
      "BackupWebStorage": "none",
      "SplashMaintainAspectRatio": "true",
      "FadeSplashScreenDuration": "300",
      "SplashScreen": "screen",
      "AutoHideSplashScreen": "false",
      "ShowSplashScreen": "true",
      "SplashScreenDelay": "0",
      "SplashShowOnlyFirstTime": "false"
    }
  }
}
